<svg width="30" height="30" viewBox="0 0 30 30" fill="none" xmlns="http://www.w3.org/2000/svg">
<path d="M25.5 8.82001V1.35001H1.94995V20.16H14.58V11.85H27.24V28.5H4.52995V22.62" stroke="white" stroke-width="1.2" stroke-miterlimit="10" stroke-linecap="round"/>
<path d="M27.2399 6.36001C27.1499 6.30001 27.0299 6.33001 26.9999 6.42001L25.4999 8.73001L24.0299 6.42001C23.9699 6.33001 23.8799 6.30001 23.7899 6.36001C23.6999 6.42001 23.6699 6.54001 23.7299 6.60001L25.3499 9.15001C25.3799 9.21001 25.4399 9.24001 25.4999 9.24001C25.5599 9.24001 25.6199 9.21001 25.6499 9.15001L27.2999 6.60001C27.3299 6.57001 27.3299 6.54001 27.3299 6.51001C27.3299 6.45001 27.2999 6.39001 27.2399 6.36001Z" fill="white" stroke="white" stroke-width="0.5"/>
<path d="M6.26998 25.08C6.17998 25.14 6.05998 25.11 6.02998 25.02L4.55998 22.71L3.08998 25.02C3.02998 25.11 2.93998 25.14 2.84998 25.08C2.72998 25.02 2.69998 24.9 2.75998 24.81L4.37998 22.26C4.40998 22.2 4.46998 22.17 4.52998 22.17C4.58998 22.17 4.64998 22.2 4.67998 22.26L6.29998 24.81C6.32998 24.84 6.32998 24.87 6.32998 24.9C6.35998 24.99 6.32998 25.05 6.26998 25.08Z" fill="white" stroke="white" stroke-width="0.5"/>
<path d="M5.25 4.94999V10.98V17.01C5.25 17.01 11.7 17.73 11.7 14.13C11.7 10.53 8.4 10.68 8.4 10.68C8.4 10.68 10.98 10.26 10.83 7.79999C10.56 4.07999 5.25 4.94999 5.25 4.94999Z" stroke="white" stroke-width="0.5" stroke-miterlimit="10" stroke-linecap="round"/>
<path d="M6.98999 6.39V9.36C6.98999 9.36 9.20999 9.6 9.20999 7.89C9.20999 6.18 6.98999 6.39 6.98999 6.39Z" stroke="white" stroke-width="0.5" stroke-miterlimit="10" stroke-linecap="round"/>
<path d="M6.98999 11.97V15.42C6.98999 15.42 9.56999 15.72 9.56999 13.71C9.56999 11.7 6.98999 11.97 6.98999 11.97Z" stroke="white" stroke-width="0.5" stroke-miterlimit="10" stroke-linecap="round"/>
<path d="M6.68994 4.79999V3.20999" stroke="white" stroke-width="0.5" stroke-miterlimit="10" stroke-linecap="round"/>
<path d="M7.83008 4.79999V3.20999" stroke="white" stroke-width="0.5" stroke-miterlimit="10" stroke-linecap="round"/>
<path d="M6.84009 18.72V17.16" stroke="white" stroke-width="0.5" stroke-miterlimit="10" stroke-linecap="round"/>
<path d="M7.97998 18.72V17.16" stroke="white" stroke-width="0.5" stroke-miterlimit="10" stroke-linecap="round"/>
<path d="M17.43 24.27C18.09 24.69 19.08 25.02 20.13 25.02C21.66 25.02 22.56 24.21 22.56 23.04C22.56 21.96 21.93 21.33 20.37 20.73C18.48 20.07 17.31 19.08 17.31 17.43C17.31 15.63 18.81 14.28 21.06 14.28C22.26 14.28 23.1 14.55 23.64 14.85L23.22 16.08C22.83 15.87 22.08 15.54 21 15.54C19.41 15.54 18.81 16.5 18.81 17.28C18.81 18.36 19.53 18.9 21.12 19.53C23.1 20.28 24.09 21.24 24.09 22.95C24.09 24.75 22.77 26.28 20.01 26.28C18.9 26.28 17.67 25.95 17.04 25.53L17.43 24.27Z" stroke="white" stroke-width="0.5" stroke-miterlimit="10"/>
<path d="M20.6101 14.28V12.84" stroke="white" stroke-width="0.5" stroke-miterlimit="10"/>
<path d="M20.6101 27.78V26.34" stroke="white" stroke-width="0.5" stroke-miterlimit="10"/>
</svg>
